^K:\2012-2013_PROGETTIVARI\GESTIONEMAGAZZINO\GESTIONEMAGAZZINO\FORM1.RESX
^K:\2012-2013_PROGETTIVARI\GESTIONEMAGAZZINO\GESTIONEMAGAZZINO\PROPERTIES\RESOURCES.RESX
C:\WINDOWS\ASSEMBLY\PUBPOL38.DAT
C:\WINDOWS\MICROSOFT.NET\ASSEMBLY\GAC_MSIL\MICROSOFT.BUILD.TASKS.V4.0\V4.0_4.0.0.0__B03F5F7F11D50A3A\MICROSOFT.BUILD.TASKS.V4.0.DLL
^K:\2012-2013_PROGETTIVARI\GESTIONEMAGAZZINO\GESTIONEMAGAZZINO\QUANTITA.RESX
^K:\2012-2013_PROGETTIVARI\GESTIONEMAGAZZINO\GESTIONEMAGAZZINO\FORMSCAFFALE.RESX
^J:\2012-2013_PROGETTIVARI\GESTIONEMAGAZZINO\GESTIONEMAGAZZINO\PROPERTIES\RESOURCES.RESX
J:\2012-2013_PROGETTIVARI\GESTIONEMAGAZZINO\GESTIONEMAGAZZINO\BIN\DEBUG\IMMAGINI\AGGIUNGI.PNG
J:\2012-2013_PROGETTIVARI\GESTIONEMAGAZZINO\GESTIONEMAGAZZINO\BIN\DEBUG\IMMAGINI\RIMUOVI.PNG
J:\2012-2013_PROGETTIVARI\GESTIONEMAGAZZINO\GESTIONEMAGAZZINO\BIN\DEBUG\IMMAGINI\CANCELLA.PNG
J:\2012-2013_PROGETTIVARI\GESTIONEMAGAZZINO\GESTIONEMAGAZZINO\BIN\DEBUG\IMMAGINI\GIU.PNG
J:\2012-2013_PROGETTIVARI\GESTIONEMAGAZZINO\GESTIONEMAGAZZINO\BIN\DEBUG\IMMAGINI\CONFERMA.PNG
J:\2012-2013_PROGETTIVARI\GESTIONEMAGAZZINO\GESTIONEMAGAZZINO\BIN\DEBUG\IMMAGINI\SU.PNG
^J:\2012-2013_PROGETTIVARI\GESTIONEMAGAZZINO\GESTIONEMAGAZZINO\QUANTITA.RESX
^J:\2012-2013_PROGETTIVARI\GESTIONEMAGAZZINO\GESTIONEMAGAZZINO\FORM1.RESX
C:\WINDOWS\MICROSOFT.NET\FRAMEWORK64\V2.0.50727\MSCORWKS.DLL
C:\WINDOWS\MICROSOFT.NET\FRAMEWORK64\V4.0.30319\CLR.DLL
C:\PROGRAM FILES (X86)\MICROSOFT SDKS\WINDOWS\V7.0A\BIN\RESGEN.EXE.CONFIG
C:\PROGRAM FILES (X86)\MICROSOFT SDKS\WINDOWS\V7.0A\BIN\RESGEN.EXE
C:\WINDOWS\MICROSOFT.NET\FRAMEWORK64\V2.0.50727\CONFIG\MACHINE.CONFIG
C:\WINDOWS\MICROSOFT.NET\FRAMEWORK64\V2.0.50727\CONFIG\SECURITY.CONFIG
C:\WINDOWS\MICROSOFT.NET\FRAMEWORK64\V2.0.50727\CONFIG\SECURITY.CONFIG.CCH
C:\WINDOWS\MICROSOFT.NET\FRAMEWORK64\V2.0.50727\CONFIG\ENTERPRISESEC.CONFIG
C:\WINDOWS\MICROSOFT.NET\FRAMEWORK64\V2.0.50727\CONFIG\ENTERPRISESEC.CONFIG.CCH
C:\WINDOWS\ASSEMBLY\NATIVEIMAGES_V2.0.50727_64\INDEXA50.DAT
C:\WINDOWS\SYSTEM32\L_INTL.NLS
C:\WINDOWS\ASSEMBLY\GAC_64\MSCORLIB\2.0.0.0__B77A5C561934E089\SORTTBLS.NLP
C:\WINDOWS\ASSEMBLY\GAC_64\MSCORLIB\2.0.0.0__B77A5C561934E089\SORTKEY.NLP
C:\WINDOWS\ASSEMBLY\PUBPOL38.DAT
C:\WINDOWS\ASSEMBLY\GAC_MSIL\MSCORLIB.RESOURCES\2.0.0.0_IT_B77A5C561934E089\MSCORLIB.RESOURCES.DLL
C:\WINDOWS\MICROSOFT.NET\FRAMEWORK\V2.0.50727\MSCORLIB.DLL
J:\2012-2013_PROGETTIVARI\GESTIONEMAGAZZINO\GESTIONEMAGAZZINO\BIN\DEBUG\SQLITE.DESIGNER.DLL
C:\WINDOWS\SYSTEM32\RSAENH.DLL
C:\WINDOWS\MICROSOFT.NET\FRAMEWORK\V2.0.50727\SYSTEM.DATA.DLL
J:\2012-2013_PROGETTIVARI\GESTIONEMAGAZZINO\GESTIONEMAGAZZINO\BIN\DEBUG\SYSTEM.DATA.SQLITE.DLL
C:\WINDOWS\MICROSOFT.NET\FRAMEWORK\V2.0.50727\SYSTEM.DEPLOYMENT.DLL
C:\WINDOWS\MICROSOFT.NET\FRAMEWORK\V2.0.50727\SYSTEM.DLL
C:\WINDOWS\MICROSOFT.NET\FRAMEWORK\V2.0.50727\SYSTEM.DRAWING.DLL
C:\WINDOWS\MICROSOFT.NET\FRAMEWORK\V2.0.50727\SYSTEM.WINDOWS.FORMS.DLL
C:\WINDOWS\MICROSOFT.NET\FRAMEWORK\V2.0.50727\SYSTEM.XML.DLL
C:\WINDOWS\ASSEMBLY\GAC_64\SYSTEM.DATA\2.0.0.0__B77A5C561934E089\SYSTEM.DATA.DLL
