^J:\2012-2013_PROGETTIVARI\GESTIONEMAGAZZINO\GESTIONEMAGAZZINO\FORM1.RESX
C:\PROGRAM FILES\SYSTEM.DATA.SQLITE\2008\BIN\SQLITE.DESIGNER.DLL
C:\WINDOWS\ASSEMBLY\GAC_64\SYSTEM.DATA\2.0.0.0__B77A5C561934E089\SYSTEM.DATA.DLL
C:\PROGRAM FILES\SYSTEM.DATA.SQLITE\2008\BIN\SYSTEM.DATA.SQLITE.DLL
J:\2012-2013_PROGETTIVARI\GESTIONEMAGAZZINO\GESTIONEMAGAZZINO\BIN\DEBUG\SQLITE.DESIGNER.DLL
J:\2012-2013_PROGETTIVARI\GESTIONEMAGAZZINO\GESTIONEMAGAZZINO\BIN\DEBUG\SYSTEM.DATA.SQLITE.DLL
^J:\2012-2013_PROGETTIVARI\GESTIONEMAGAZZINO\GESTIONEMAGAZZINO\PROPERTIES\RESOURCES.RESX
J:\2012-2013_PROGETTIVARI\GESTIONEMAGAZZINO\GESTIONEMAGAZZINO\BIN\DEBUG\IMMAGINI\AGGIUNGI.PNG
J:\2012-2013_PROGETTIVARI\GESTIONEMAGAZZINO\GESTIONEMAGAZZINO\BIN\DEBUG\IMMAGINI\CANCELLA.PNG
J:\2012-2013_PROGETTIVARI\GESTIONEMAGAZZINO\GESTIONEMAGAZZINO\BIN\DEBUG\IMMAGINI\RIMUOVI.PNG
J:\2012-2013_PROGETTIVARI\GESTIONEMAGAZZINO\GESTIONEMAGAZZINO\BIN\DEBUG\IMMAGINI\GIU.PNG
J:\2012-2013_PROGETTIVARI\GESTIONEMAGAZZINO\GESTIONEMAGAZZINO\BIN\DEBUG\IMMAGINI\SU.PNG
^J:\2012-2013_PROGETTIVARI\GESTIONEMAGAZZINO\GESTIONEMAGAZZINO\QUANTITA.RESX
